[
	{
	    "model": "auth.group",
	    "pk": 1,
	    "fields": {
	      "name": "administrator"
	    }
	},
	{
	    "model": "auth.group",
	    "pk": 2,
	    "fields": {
	      "name": "staff"
	    }
	},
	{
	    "model": "auth.group",
	    "pk": 3,
	    "fields": {
	      "name": "customer"
	    }
	},
	{
	    "model": "auth.group",
	    "pk": 4,
	    "fields": {
	      "name": "vendor"
	    }
	}
]
